\relax 
\citation{soroush:arraystore}
\citation{Brown:Overview}
\citation{Stonebraker:The}
\citation{Sarawagi:Efficient}
\@writefile{toc}{\contentsline {section}{\numberline {1}Introduction}{\thepage }}
\@writefile{lot}{\contentsline {table}{\numberline {1}{\ignorespaces Simple Two Dimension Array}}{\thepage }}
\@writefile{toc}{\contentsline {section}{\numberline {2}Sci-Spark}{\thepage }}
\@writefile{toc}{\contentsline {subsection}{\numberline {2.1}Spark,DataFrame and RDDs}{\thepage }}
\@writefile{toc}{\contentsline {subsection}{\numberline {2.2}Data Definition}{\thepage }}
\bibstyle{unsrt}
\bibdata{sigproc}
\bibcite{soroush:arraystore}{1}
\bibcite{Brown:Overview}{2}
\bibcite{Stonebraker:The}{3}
\bibcite{Sarawagi:Efficient}{4}
\@writefile{lof}{\contentsline {figure}{\numberline {1}{\ignorespaces Sci-Spark Storage Manager}}{\thepage }}
\@writefile{toc}{\contentsline {subsection}{\numberline {2.3}Data Manipulation}{\thepage }}
\@writefile{toc}{\contentsline {section}{\numberline {3}Experiment Evaluation}{\thepage }}
\@writefile{toc}{\contentsline {subsection}{\numberline {3.1}Experimental Setup}{\thepage }}
\@writefile{toc}{\contentsline {subsection}{\numberline {3.2}Experimental Evaluation}{\thepage }}
\@writefile{lof}{\contentsline {figure}{\numberline {2}{\ignorespaces System Performance}}{\thepage }}
\@writefile{toc}{\contentsline {section}{\numberline {4}Conclusion and Future Work}{\thepage }}
\@writefile{toc}{\contentsline {section}{\numberline {5}Acknowledgments}{\thepage }}
\@writefile{toc}{\contentsline {section}{\numberline {6}References}{\thepage }}
