\begin{thebibliography}{1}

\bibitem{soroush:arraystore}
Emad Soroush, Magdalena Balazinska, and Daniel Wang.
\newblock Arraystore: A storage manager for complex parallel array processing.
\newblock pages 253--264, 2011.

\bibitem{Brown:Overview}
Paul~G. Brown.
\newblock Overview of scidb: large scale array storage, processing and
  analysis.
\newblock pages 963--968, 2010.

\bibitem{Stonebraker:The}
Michael Stonebraker, Paul Brown, Alex Poliakov, and Suchi Raman.
\newblock The architecture of scidb.
\newblock pages 1--16, 2011.

\bibitem{Sarawagi:Efficient}
Sunita Sarawagi and Michael Stonebraker.
\newblock Efficient organization of large multidimensional arrays.
\newblock pages 328--336, 1994.

\end{thebibliography}
